/* plantuml -tsvg blue-green-state-diagram.puml */

@startuml blue-green-state-diagram

state blueI as "Blue[Inactive]"
blueI : current stack = none
blueI : next stack = blue
blueI : blue node taint = dedicated:ginan-ops-blue:NoSchedule

state blueA as "Blue[Active]"
blueA : current stack = blue
blueA : next stack = green
blueA : blue node taint = dedicated:ginan-ops:NoSchedule

state blueA_greenI as "Blue[Active] & Green[Inactive]"
blueA_greenI : current stack = blue
blueA_greenI : next stack = green
blueA_greenI : blue node taint = dedicated:ginan-ops:NoSchedule
blueA_greenI : green node taint = dedicated:ginan-ops-green:NoSchedule

state greenA_blueI as "Green[Active] & Blue[Inactive]"
greenA_blueI : current stack = green
greenA_blueI : next stack = blue
greenA_blueI : green node taint = dedicated:ginan-ops:NoSchedule
greenA_blueI : blue node taint = dedicated:ginan-ops-blue:NoSchedule

state greenA as "Green[Active]"
greenA : current stack = green
greenA : next stack = blue
greenA : green node taint = dedicated:ginan-ops:NoSchedule

[*] -> blueI : deploy [blue]
blueI --> blueA : switch [to blue]
blueA --> blueA_greenI : deploy [green]
blueA_greenI --> greenA_blueI : switch [to green]
greenA_blueI --> blueA_greenI : switch [to blue]
greenA_blueI --> greenA : destroy [blue]
greenA --> greenA_blueI : deploy [blue]
blueA_greenI --> blueA : destroy [green]

@enduml
