<mxfile host="app.diagrams.net" agent="Mozilla/5.0 (X11; Linux x86_64) AppleWebKit/537.36 (KHTML, like Gecko) Chrome/133.0.0.0 Safari/537.36" version="26.0.14">
  <diagram name="Page-1" id="D4W24YZVsMNrFOOmrAZt">
    <mxGraphModel dx="5003" dy="2565" grid="1" gridSize="10" guides="1" tooltips="1" connect="1" arrows="1" fold="1" page="0" pageScale="1" pageWidth="827" pageHeight="1169" math="0" shadow="0">
      <root>
        <mxCell id="0" />
        <mxCell id="1" parent="0" />
        <mxCell id="q7E_0QqQID74fccOIp7r-2" value="AWS Account&lt;div&gt;gnss-common-nonprod/prod&lt;/div&gt;" style="points=[[0,0],[0.25,0],[0.5,0],[0.75,0],[1,0],[1,0.25],[1,0.5],[1,0.75],[1,1],[0.75,1],[0.5,1],[0.25,1],[0,1],[0,0.75],[0,0.5],[0,0.25]];outlineConnect=0;gradientColor=none;html=1;whiteSpace=wrap;fontSize=12;fontStyle=0;container=1;pointerEvents=0;collapsible=0;recursiveResize=0;shape=mxgraph.aws4.group;grIcon=mxgraph.aws4.group_account;strokeColor=#CD2264;fillColor=none;verticalAlign=top;align=left;spacingLeft=30;fontColor=#CD2264;dashed=0;movable=0;resizable=0;rotatable=0;deletable=0;editable=0;locked=1;connectable=0;" parent="1" vertex="1">
          <mxGeometry x="-2490" y="-860" width="1920" height="1160" as="geometry" />
        </mxCell>
        <mxCell id="hcDSjgyyMV5yw6pE5WX8-2" value="EKS VPC - ap-southeast-2 - 10.49.0.0/16" style="sketch=0;outlineConnect=0;gradientColor=none;html=1;whiteSpace=wrap;fontSize=12;fontStyle=0;shape=mxgraph.aws4.group;grIcon=mxgraph.aws4.group_vpc;strokeColor=#879196;fillColor=none;verticalAlign=top;align=left;spacingLeft=30;fontColor=#879196;dashed=0;movable=0;resizable=0;rotatable=0;deletable=0;editable=0;locked=1;connectable=0;" parent="1" vertex="1">
          <mxGeometry x="-2170" y="-800" width="1550" height="1060" as="geometry" />
        </mxCell>
        <mxCell id="J0dQeRpLoNbESxw6J08J-27" style="edgeStyle=orthogonalEdgeStyle;rounded=0;orthogonalLoop=1;jettySize=auto;html=1;exitX=0;exitY=0.5;exitDx=0;exitDy=0;exitPerimeter=0;entryX=1;entryY=0.5;entryDx=0;entryDy=0;" parent="1" source="hcDSjgyyMV5yw6pE5WX8-3" target="J0dQeRpLoNbESxw6J08J-28" edge="1">
          <mxGeometry relative="1" as="geometry" />
        </mxCell>
        <mxCell id="hcDSjgyyMV5yw6pE5WX8-3" value="CORSnet-NSW Peer" style="outlineConnect=0;dashed=0;verticalLabelPosition=bottom;verticalAlign=top;align=center;html=1;shape=mxgraph.aws3.vpc_peering;fillColor=#F58534;gradientColor=none;" parent="1" vertex="1">
          <mxGeometry x="-2095.5" y="-142" width="69" height="72" as="geometry" />
        </mxCell>
        <mxCell id="hcDSjgyyMV5yw6pE5WX8-4" value="Private Subnet AZ a&lt;div&gt;10.49.10.0/24&lt;/div&gt;" style="sketch=0;outlineConnect=0;gradientColor=none;html=1;whiteSpace=wrap;fontSize=12;fontStyle=0;shape=mxgraph.aws4.group;grIcon=mxgraph.aws4.group_subnet;strokeColor=#879196;fillColor=none;verticalAlign=top;align=left;spacingLeft=30;fontColor=#879196;dashed=0;" parent="1" vertex="1">
          <mxGeometry x="-1930" y="-290" width="260" height="450" as="geometry" />
        </mxCell>
        <mxCell id="hcDSjgyyMV5yw6pE5WX8-7" value="Private&amp;nbsp;&lt;span style=&quot;background-color: initial;&quot;&gt;Subnet AZ c&lt;/span&gt;&lt;div&gt;&lt;span style=&quot;background-color: initial;&quot;&gt;10.49.12.0/24&lt;/span&gt;&lt;/div&gt;" style="sketch=0;outlineConnect=0;gradientColor=none;html=1;whiteSpace=wrap;fontSize=12;fontStyle=0;shape=mxgraph.aws4.group;grIcon=mxgraph.aws4.group_subnet;strokeColor=#879196;fillColor=none;verticalAlign=top;align=left;spacingLeft=30;fontColor=#879196;dashed=0;" parent="1" vertex="1">
          <mxGeometry x="-1370" y="-290" width="260" height="450" as="geometry" />
        </mxCell>
        <mxCell id="hcDSjgyyMV5yw6pE5WX8-8" value="Private Subnet AZ b&lt;div&gt;10.49.11.0/24&lt;/div&gt;" style="sketch=0;outlineConnect=0;gradientColor=none;html=1;whiteSpace=wrap;fontSize=12;fontStyle=0;shape=mxgraph.aws4.group;grIcon=mxgraph.aws4.group_subnet;strokeColor=#879196;fillColor=none;verticalAlign=top;align=left;spacingLeft=30;fontColor=#879196;dashed=0;" parent="1" vertex="1">
          <mxGeometry x="-1650" y="-290" width="260" height="450" as="geometry" />
        </mxCell>
        <mxCell id="hcDSjgyyMV5yw6pE5WX8-9" value="&lt;div&gt;EKS Node Group ASGs&lt;/div&gt;&lt;div&gt;(default,&amp;nbsp;&lt;span style=&quot;background-color: transparent; color: light-dark(rgb(216, 102, 19), rgb(216, 118, 46));&quot;&gt;ginan ops, ginan ops spot)&lt;/span&gt;&lt;/div&gt;" style="points=[[0,0],[0.25,0],[0.5,0],[0.75,0],[1,0],[1,0.25],[1,0.5],[1,0.75],[1,1],[0.75,1],[0.5,1],[0.25,1],[0,1],[0,0.75],[0,0.5],[0,0.25]];outlineConnect=0;gradientColor=none;html=1;whiteSpace=wrap;fontSize=12;fontStyle=0;container=1;pointerEvents=0;collapsible=0;recursiveResize=0;shape=mxgraph.aws4.groupCenter;grIcon=mxgraph.aws4.group_auto_scaling_group;grStroke=1;strokeColor=#D86613;fillColor=none;verticalAlign=top;align=center;fontColor=#D86613;dashed=1;spacingTop=25;" parent="1" vertex="1">
          <mxGeometry x="-1900" y="-240" width="760" height="100" as="geometry" />
        </mxCell>
        <mxCell id="J0dQeRpLoNbESxw6J08J-29" style="edgeStyle=orthogonalEdgeStyle;rounded=0;orthogonalLoop=1;jettySize=auto;html=1;exitX=0;exitY=0.5;exitDx=0;exitDy=0;exitPerimeter=0;" parent="1" source="hcDSjgyyMV5yw6pE5WX8-13" target="30fNEifEjN3rO4pBRbPx-2" edge="1">
          <mxGeometry relative="1" as="geometry">
            <mxPoint x="-2220" y="15" as="targetPoint" />
          </mxGeometry>
        </mxCell>
        <mxCell id="hcDSjgyyMV5yw6pE5WX8-13" value="RDS Peer" style="outlineConnect=0;dashed=0;verticalLabelPosition=bottom;verticalAlign=top;align=center;html=1;shape=mxgraph.aws3.vpc_peering;fillColor=#F58534;gradientColor=none;" parent="1" vertex="1">
          <mxGeometry x="-2095.5" y="33" width="69" height="72" as="geometry" />
        </mxCell>
        <mxCell id="J0dQeRpLoNbESxw6J08J-5" value="Public Subnet AZ a&lt;div&gt;10.49.0.0/24&lt;/div&gt;" style="sketch=0;outlineConnect=0;gradientColor=none;html=1;whiteSpace=wrap;fontSize=12;fontStyle=0;shape=mxgraph.aws4.group;grIcon=mxgraph.aws4.group_subnet;strokeColor=#879196;fillColor=none;verticalAlign=top;align=left;spacingLeft=30;fontColor=#879196;dashed=0;" parent="1" vertex="1">
          <mxGeometry x="-1930" y="-700" width="260" height="350" as="geometry" />
        </mxCell>
        <mxCell id="J0dQeRpLoNbESxw6J08J-6" value="Public&amp;nbsp;&lt;span style=&quot;background-color: initial;&quot;&gt;Subnet AZ c&lt;/span&gt;&lt;div&gt;&lt;span style=&quot;background-color: initial;&quot;&gt;10.49.2.0/24&lt;/span&gt;&lt;/div&gt;" style="sketch=0;outlineConnect=0;gradientColor=none;html=1;whiteSpace=wrap;fontSize=12;fontStyle=0;shape=mxgraph.aws4.group;grIcon=mxgraph.aws4.group_subnet;strokeColor=#879196;fillColor=none;verticalAlign=top;align=left;spacingLeft=30;fontColor=#879196;dashed=0;" parent="1" vertex="1">
          <mxGeometry x="-1370" y="-700" width="260" height="350" as="geometry" />
        </mxCell>
        <mxCell id="J0dQeRpLoNbESxw6J08J-7" value="Public Subnet AZ b&lt;div&gt;10.49.1.0/24&lt;/div&gt;" style="sketch=0;outlineConnect=0;gradientColor=none;html=1;whiteSpace=wrap;fontSize=12;fontStyle=0;shape=mxgraph.aws4.group;grIcon=mxgraph.aws4.group_subnet;strokeColor=#879196;fillColor=none;verticalAlign=top;align=left;spacingLeft=30;fontColor=#879196;dashed=0;" parent="1" vertex="1">
          <mxGeometry x="-1650" y="-700" width="260" height="350" as="geometry" />
        </mxCell>
        <mxCell id="J0dQeRpLoNbESxw6J08J-12" value="Elastic Load Balancing&lt;div&gt;Internet Facing&lt;/div&gt;" style="sketch=0;outlineConnect=0;gradientColor=none;html=1;whiteSpace=wrap;fontSize=12;fontStyle=0;shape=mxgraph.aws4.groupCenter;grIcon=mxgraph.aws4.group_elastic_load_balancing;grStroke=1;strokeColor=#00A1C9;fillColor=none;verticalAlign=top;align=center;fontColor=#00A1C9;dashed=0;spacingTop=25;" parent="1" vertex="1">
          <mxGeometry x="-1900" y="-640" width="760" height="100" as="geometry" />
        </mxCell>
        <mxCell id="J0dQeRpLoNbESxw6J08J-13" value="Internet Gateway" style="outlineConnect=0;dashed=0;verticalLabelPosition=bottom;verticalAlign=top;align=center;html=1;shape=mxgraph.aws3.internet_gateway;fillColor=#F58534;gradientColor=none;" parent="1" vertex="1">
          <mxGeometry x="-2100" y="-670" width="69" height="72" as="geometry" />
        </mxCell>
        <mxCell id="J0dQeRpLoNbESxw6J08J-15" value="NAT Gateway&lt;div&gt;(ElasticIP)&lt;/div&gt;" style="outlineConnect=0;dashed=0;verticalLabelPosition=bottom;verticalAlign=top;align=center;html=1;shape=mxgraph.aws3.vpc_nat_gateway;fillColor=#F58534;gradientColor=none;" parent="1" vertex="1">
          <mxGeometry x="-1820" y="-473" width="57" height="60" as="geometry" />
        </mxCell>
        <mxCell id="J0dQeRpLoNbESxw6J08J-25" value="S3 Gateway Endpoint" style="sketch=0;outlineConnect=0;fontColor=#232F3E;gradientColor=none;fillColor=#8C4FFF;strokeColor=none;dashed=0;verticalLabelPosition=bottom;verticalAlign=top;align=center;html=1;fontSize=12;fontStyle=0;aspect=fixed;pointerEvents=1;shape=mxgraph.aws4.endpoints;" parent="1" vertex="1">
          <mxGeometry x="-2104.5" y="-524.5" width="78" height="78" as="geometry" />
        </mxCell>
        <mxCell id="J0dQeRpLoNbESxw6J08J-28" value="AWS Account&lt;div&gt;NSW Spatial Services&lt;/div&gt;&lt;div&gt;(CORSnet-NSW)&lt;/div&gt;&lt;div&gt;&lt;br&gt;&lt;/div&gt;&lt;div&gt;10.11.28.0 /22&lt;/div&gt;" style="points=[[0,0],[0.25,0],[0.5,0],[0.75,0],[1,0],[1,0.25],[1,0.5],[1,0.75],[1,1],[0.75,1],[0.5,1],[0.25,1],[0,1],[0,0.75],[0,0.5],[0,0.25]];outlineConnect=0;gradientColor=none;html=1;whiteSpace=wrap;fontSize=12;fontStyle=0;container=1;pointerEvents=0;collapsible=0;recursiveResize=0;shape=mxgraph.aws4.group;grIcon=mxgraph.aws4.group_account;strokeColor=#CD2264;fillColor=none;verticalAlign=top;align=left;spacingLeft=30;fontColor=#CD2264;dashed=0;" parent="1" vertex="1">
          <mxGeometry x="-2775.5" y="-170" width="220" height="129" as="geometry" />
        </mxCell>
        <mxCell id="J0dQeRpLoNbESxw6J08J-30" value="gnss-eks-2" style="sketch=0;points=[[0,0,0],[0.25,0,0],[0.5,0,0],[0.75,0,0],[1,0,0],[0,1,0],[0.25,1,0],[0.5,1,0],[0.75,1,0],[1,1,0],[0,0.25,0],[0,0.5,0],[0,0.75,0],[1,0.25,0],[1,0.5,0],[1,0.75,0]];outlineConnect=0;fontColor=#232F3E;fillColor=#ED7100;strokeColor=#ffffff;dashed=0;verticalLabelPosition=bottom;verticalAlign=top;align=center;html=1;fontSize=12;fontStyle=0;aspect=fixed;shape=mxgraph.aws4.resourceIcon;resIcon=mxgraph.aws4.eks;" parent="1" vertex="1">
          <mxGeometry x="-1830" y="40" width="60" height="60" as="geometry" />
        </mxCell>
        <mxCell id="J0dQeRpLoNbESxw6J08J-31" value="gnss-eks-2" style="sketch=0;points=[[0,0,0],[0.25,0,0],[0.5,0,0],[0.75,0,0],[1,0,0],[0,1,0],[0.25,1,0],[0.5,1,0],[0.75,1,0],[1,1,0],[0,0.25,0],[0,0.5,0],[0,0.75,0],[1,0.25,0],[1,0.5,0],[1,0.75,0]];outlineConnect=0;fontColor=#232F3E;fillColor=#ED7100;strokeColor=#ffffff;dashed=0;verticalLabelPosition=bottom;verticalAlign=top;align=center;html=1;fontSize=12;fontStyle=0;aspect=fixed;shape=mxgraph.aws4.resourceIcon;resIcon=mxgraph.aws4.eks;" parent="1" vertex="1">
          <mxGeometry x="-1550" y="40" width="60" height="60" as="geometry" />
        </mxCell>
        <mxCell id="J0dQeRpLoNbESxw6J08J-32" value="gnss-eks-2" style="sketch=0;points=[[0,0,0],[0.25,0,0],[0.5,0,0],[0.75,0,0],[1,0,0],[0,1,0],[0.25,1,0],[0.5,1,0],[0.75,1,0],[1,1,0],[0,0.25,0],[0,0.5,0],[0,0.75,0],[1,0.25,0],[1,0.5,0],[1,0.75,0]];outlineConnect=0;fontColor=#232F3E;fillColor=#ED7100;strokeColor=#ffffff;dashed=0;verticalLabelPosition=bottom;verticalAlign=top;align=center;html=1;fontSize=12;fontStyle=0;aspect=fixed;shape=mxgraph.aws4.resourceIcon;resIcon=mxgraph.aws4.eks;" parent="1" vertex="1">
          <mxGeometry x="-1270" y="40" width="60" height="60" as="geometry" />
        </mxCell>
        <mxCell id="J0dQeRpLoNbESxw6J08J-44" value="NAT Gateway&lt;div&gt;(ElasticIP)&lt;/div&gt;" style="outlineConnect=0;dashed=0;verticalLabelPosition=bottom;verticalAlign=top;align=center;html=1;shape=mxgraph.aws3.vpc_nat_gateway;fillColor=#F58534;gradientColor=none;" parent="1" vertex="1">
          <mxGeometry x="-1548.5" y="-473" width="57" height="60" as="geometry" />
        </mxCell>
        <mxCell id="J0dQeRpLoNbESxw6J08J-46" value="NAT Gateway&lt;div&gt;(ElasticIP)&lt;/div&gt;" style="outlineConnect=0;dashed=0;verticalLabelPosition=bottom;verticalAlign=top;align=center;html=1;shape=mxgraph.aws3.vpc_nat_gateway;fillColor=#F58534;gradientColor=none;" parent="1" vertex="1">
          <mxGeometry x="-1268.5" y="-473" width="57" height="60" as="geometry" />
        </mxCell>
        <mxCell id="J0dQeRpLoNbESxw6J08J-101" value="Public Route Table" style="shape=table;startSize=30;container=1;collapsible=0;childLayout=tableLayout;" parent="1" vertex="1">
          <mxGeometry x="-997.5" y="-633.5" width="260" height="190" as="geometry" />
        </mxCell>
        <mxCell id="J0dQeRpLoNbESxw6J08J-102" value="" style="shape=tableRow;horizontal=0;startSize=0;swimlaneHead=0;swimlaneBody=0;strokeColor=inherit;top=0;left=0;bottom=0;right=0;collapsible=0;dropTarget=0;fillColor=none;points=[[0,0.5],[1,0.5]];portConstraint=eastwest;" parent="J0dQeRpLoNbESxw6J08J-101" vertex="1">
          <mxGeometry y="30" width="260" height="40" as="geometry" />
        </mxCell>
        <mxCell id="J0dQeRpLoNbESxw6J08J-103" value="Destination" style="shape=partialRectangle;html=1;whiteSpace=wrap;connectable=0;strokeColor=#23445d;overflow=hidden;fillColor=#bac8d3;top=0;left=0;bottom=0;right=0;pointerEvents=1;" parent="J0dQeRpLoNbESxw6J08J-102" vertex="1">
          <mxGeometry width="90" height="40" as="geometry">
            <mxRectangle width="90" height="40" as="alternateBounds" />
          </mxGeometry>
        </mxCell>
        <mxCell id="J0dQeRpLoNbESxw6J08J-104" value="Target" style="shape=partialRectangle;html=1;whiteSpace=wrap;connectable=0;strokeColor=#23445d;overflow=hidden;fillColor=#bac8d3;top=0;left=0;bottom=0;right=0;pointerEvents=1;" parent="J0dQeRpLoNbESxw6J08J-102" vertex="1">
          <mxGeometry x="90" width="170" height="40" as="geometry">
            <mxRectangle width="170" height="40" as="alternateBounds" />
          </mxGeometry>
        </mxCell>
        <mxCell id="J0dQeRpLoNbESxw6J08J-105" value="" style="shape=tableRow;horizontal=0;startSize=0;swimlaneHead=0;swimlaneBody=0;strokeColor=inherit;top=0;left=0;bottom=0;right=0;collapsible=0;dropTarget=0;fillColor=none;points=[[0,0.5],[1,0.5]];portConstraint=eastwest;" parent="J0dQeRpLoNbESxw6J08J-101" vertex="1">
          <mxGeometry y="70" width="260" height="40" as="geometry" />
        </mxCell>
        <mxCell id="J0dQeRpLoNbESxw6J08J-106" value="0.0.0.0 /0" style="shape=partialRectangle;html=1;whiteSpace=wrap;connectable=0;strokeColor=inherit;overflow=hidden;fillColor=none;top=0;left=0;bottom=0;right=0;pointerEvents=1;" parent="J0dQeRpLoNbESxw6J08J-105" vertex="1">
          <mxGeometry width="90" height="40" as="geometry">
            <mxRectangle width="90" height="40" as="alternateBounds" />
          </mxGeometry>
        </mxCell>
        <mxCell id="J0dQeRpLoNbESxw6J08J-107" value="Inetrnet Gateway" style="shape=partialRectangle;html=1;whiteSpace=wrap;connectable=0;strokeColor=inherit;overflow=hidden;fillColor=none;top=0;left=0;bottom=0;right=0;pointerEvents=1;" parent="J0dQeRpLoNbESxw6J08J-105" vertex="1">
          <mxGeometry x="90" width="170" height="40" as="geometry">
            <mxRectangle width="170" height="40" as="alternateBounds" />
          </mxGeometry>
        </mxCell>
        <mxCell id="J0dQeRpLoNbESxw6J08J-108" value="" style="shape=tableRow;horizontal=0;startSize=0;swimlaneHead=0;swimlaneBody=0;strokeColor=inherit;top=0;left=0;bottom=0;right=0;collapsible=0;dropTarget=0;fillColor=none;points=[[0,0.5],[1,0.5]];portConstraint=eastwest;" parent="J0dQeRpLoNbESxw6J08J-101" vertex="1">
          <mxGeometry y="110" width="260" height="40" as="geometry" />
        </mxCell>
        <mxCell id="J0dQeRpLoNbESxw6J08J-109" value="S3" style="shape=partialRectangle;html=1;whiteSpace=wrap;connectable=0;strokeColor=inherit;overflow=hidden;fillColor=none;top=0;left=0;bottom=0;right=0;pointerEvents=1;" parent="J0dQeRpLoNbESxw6J08J-108" vertex="1">
          <mxGeometry width="90" height="40" as="geometry">
            <mxRectangle width="90" height="40" as="alternateBounds" />
          </mxGeometry>
        </mxCell>
        <mxCell id="J0dQeRpLoNbESxw6J08J-110" value="S3 Gateway" style="shape=partialRectangle;html=1;whiteSpace=wrap;connectable=0;strokeColor=inherit;overflow=hidden;fillColor=none;top=0;left=0;bottom=0;right=0;pointerEvents=1;" parent="J0dQeRpLoNbESxw6J08J-108" vertex="1">
          <mxGeometry x="90" width="170" height="40" as="geometry">
            <mxRectangle width="170" height="40" as="alternateBounds" />
          </mxGeometry>
        </mxCell>
        <mxCell id="zUVzzsmAaj4XS_Gr1BxX-7" style="shape=tableRow;horizontal=0;startSize=0;swimlaneHead=0;swimlaneBody=0;strokeColor=inherit;top=0;left=0;bottom=0;right=0;collapsible=0;dropTarget=0;fillColor=none;points=[[0,0.5],[1,0.5]];portConstraint=eastwest;" parent="J0dQeRpLoNbESxw6J08J-101" vertex="1">
          <mxGeometry y="150" width="260" height="40" as="geometry" />
        </mxCell>
        <mxCell id="zUVzzsmAaj4XS_Gr1BxX-8" value="10.49.0.0 /16" style="shape=partialRectangle;html=1;whiteSpace=wrap;connectable=0;strokeColor=inherit;overflow=hidden;fillColor=none;top=0;left=0;bottom=0;right=0;pointerEvents=1;" parent="zUVzzsmAaj4XS_Gr1BxX-7" vertex="1">
          <mxGeometry width="90" height="40" as="geometry">
            <mxRectangle width="90" height="40" as="alternateBounds" />
          </mxGeometry>
        </mxCell>
        <mxCell id="zUVzzsmAaj4XS_Gr1BxX-9" value="Local" style="shape=partialRectangle;html=1;whiteSpace=wrap;connectable=0;strokeColor=inherit;overflow=hidden;fillColor=none;top=0;left=0;bottom=0;right=0;pointerEvents=1;" parent="zUVzzsmAaj4XS_Gr1BxX-7" vertex="1">
          <mxGeometry x="90" width="170" height="40" as="geometry">
            <mxRectangle width="170" height="40" as="alternateBounds" />
          </mxGeometry>
        </mxCell>
        <mxCell id="J0dQeRpLoNbESxw6J08J-111" value="Private Route Tables" style="shape=table;startSize=30;container=1;collapsible=0;childLayout=tableLayout;" parent="1" vertex="1">
          <mxGeometry x="-1040" y="-220" width="345" height="270" as="geometry" />
        </mxCell>
        <mxCell id="J0dQeRpLoNbESxw6J08J-112" value="" style="shape=tableRow;horizontal=0;startSize=0;swimlaneHead=0;swimlaneBody=0;strokeColor=inherit;top=0;left=0;bottom=0;right=0;collapsible=0;dropTarget=0;fillColor=none;points=[[0,0.5],[1,0.5]];portConstraint=eastwest;" parent="J0dQeRpLoNbESxw6J08J-111" vertex="1">
          <mxGeometry y="30" width="345" height="40" as="geometry" />
        </mxCell>
        <mxCell id="J0dQeRpLoNbESxw6J08J-113" value="Destination" style="shape=partialRectangle;html=1;whiteSpace=wrap;connectable=0;strokeColor=#23445d;overflow=hidden;fillColor=#bac8d3;top=0;left=0;bottom=0;right=0;pointerEvents=1;" parent="J0dQeRpLoNbESxw6J08J-112" vertex="1">
          <mxGeometry width="130" height="40" as="geometry">
            <mxRectangle width="130" height="40" as="alternateBounds" />
          </mxGeometry>
        </mxCell>
        <mxCell id="J0dQeRpLoNbESxw6J08J-114" value="Target" style="shape=partialRectangle;html=1;whiteSpace=wrap;connectable=0;strokeColor=#23445d;overflow=hidden;fillColor=#bac8d3;top=0;left=0;bottom=0;right=0;pointerEvents=1;" parent="J0dQeRpLoNbESxw6J08J-112" vertex="1">
          <mxGeometry x="130" width="215" height="40" as="geometry">
            <mxRectangle width="215" height="40" as="alternateBounds" />
          </mxGeometry>
        </mxCell>
        <mxCell id="J0dQeRpLoNbESxw6J08J-115" value="" style="shape=tableRow;horizontal=0;startSize=0;swimlaneHead=0;swimlaneBody=0;strokeColor=inherit;top=0;left=0;bottom=0;right=0;collapsible=0;dropTarget=0;fillColor=none;points=[[0,0.5],[1,0.5]];portConstraint=eastwest;" parent="J0dQeRpLoNbESxw6J08J-111" vertex="1">
          <mxGeometry y="70" width="345" height="40" as="geometry" />
        </mxCell>
        <mxCell id="J0dQeRpLoNbESxw6J08J-116" value="0.0.0.0 /0" style="shape=partialRectangle;html=1;whiteSpace=wrap;connectable=0;strokeColor=inherit;overflow=hidden;fillColor=none;top=0;left=0;bottom=0;right=0;pointerEvents=1;" parent="J0dQeRpLoNbESxw6J08J-115" vertex="1">
          <mxGeometry width="130" height="40" as="geometry">
            <mxRectangle width="130" height="40" as="alternateBounds" />
          </mxGeometry>
        </mxCell>
        <mxCell id="J0dQeRpLoNbESxw6J08J-117" value="NAT Gateway" style="shape=partialRectangle;html=1;whiteSpace=wrap;connectable=0;strokeColor=inherit;overflow=hidden;fillColor=none;top=0;left=0;bottom=0;right=0;pointerEvents=1;" parent="J0dQeRpLoNbESxw6J08J-115" vertex="1">
          <mxGeometry x="130" width="215" height="40" as="geometry">
            <mxRectangle width="215" height="40" as="alternateBounds" />
          </mxGeometry>
        </mxCell>
        <mxCell id="J0dQeRpLoNbESxw6J08J-118" value="" style="shape=tableRow;horizontal=0;startSize=0;swimlaneHead=0;swimlaneBody=0;strokeColor=inherit;top=0;left=0;bottom=0;right=0;collapsible=0;dropTarget=0;fillColor=none;points=[[0,0.5],[1,0.5]];portConstraint=eastwest;" parent="J0dQeRpLoNbESxw6J08J-111" vertex="1">
          <mxGeometry y="110" width="345" height="40" as="geometry" />
        </mxCell>
        <mxCell id="J0dQeRpLoNbESxw6J08J-119" value="S3" style="shape=partialRectangle;html=1;whiteSpace=wrap;connectable=0;strokeColor=inherit;overflow=hidden;fillColor=none;top=0;left=0;bottom=0;right=0;pointerEvents=1;" parent="J0dQeRpLoNbESxw6J08J-118" vertex="1">
          <mxGeometry width="130" height="40" as="geometry">
            <mxRectangle width="130" height="40" as="alternateBounds" />
          </mxGeometry>
        </mxCell>
        <mxCell id="J0dQeRpLoNbESxw6J08J-120" value="S3 Gateway" style="shape=partialRectangle;html=1;whiteSpace=wrap;connectable=0;strokeColor=inherit;overflow=hidden;fillColor=none;top=0;left=0;bottom=0;right=0;pointerEvents=1;" parent="J0dQeRpLoNbESxw6J08J-118" vertex="1">
          <mxGeometry x="130" width="215" height="40" as="geometry">
            <mxRectangle width="215" height="40" as="alternateBounds" />
          </mxGeometry>
        </mxCell>
        <mxCell id="J0dQeRpLoNbESxw6J08J-122" style="shape=tableRow;horizontal=0;startSize=0;swimlaneHead=0;swimlaneBody=0;strokeColor=inherit;top=0;left=0;bottom=0;right=0;collapsible=0;dropTarget=0;fillColor=none;points=[[0,0.5],[1,0.5]];portConstraint=eastwest;" parent="J0dQeRpLoNbESxw6J08J-111" vertex="1">
          <mxGeometry y="150" width="345" height="40" as="geometry" />
        </mxCell>
        <mxCell id="J0dQeRpLoNbESxw6J08J-123" value="10.0.0.0 /16" style="shape=partialRectangle;html=1;whiteSpace=wrap;connectable=0;strokeColor=inherit;overflow=hidden;fillColor=none;top=0;left=0;bottom=0;right=0;pointerEvents=1;" parent="J0dQeRpLoNbESxw6J08J-122" vertex="1">
          <mxGeometry width="130" height="40" as="geometry">
            <mxRectangle width="130" height="40" as="alternateBounds" />
          </mxGeometry>
        </mxCell>
        <mxCell id="J0dQeRpLoNbESxw6J08J-124" value="RDS VPC Peer" style="shape=partialRectangle;html=1;whiteSpace=wrap;connectable=0;strokeColor=inherit;overflow=hidden;fillColor=none;top=0;left=0;bottom=0;right=0;pointerEvents=1;" parent="J0dQeRpLoNbESxw6J08J-122" vertex="1">
          <mxGeometry x="130" width="215" height="40" as="geometry">
            <mxRectangle width="215" height="40" as="alternateBounds" />
          </mxGeometry>
        </mxCell>
        <mxCell id="J0dQeRpLoNbESxw6J08J-125" style="shape=tableRow;horizontal=0;startSize=0;swimlaneHead=0;swimlaneBody=0;strokeColor=inherit;top=0;left=0;bottom=0;right=0;collapsible=0;dropTarget=0;fillColor=none;points=[[0,0.5],[1,0.5]];portConstraint=eastwest;" parent="J0dQeRpLoNbESxw6J08J-111" vertex="1">
          <mxGeometry y="190" width="345" height="40" as="geometry" />
        </mxCell>
        <mxCell id="J0dQeRpLoNbESxw6J08J-126" value="10.11.28.0 /22" style="shape=partialRectangle;html=1;whiteSpace=wrap;connectable=0;strokeColor=inherit;overflow=hidden;fillColor=none;top=0;left=0;bottom=0;right=0;pointerEvents=1;" parent="J0dQeRpLoNbESxw6J08J-125" vertex="1">
          <mxGeometry width="130" height="40" as="geometry">
            <mxRectangle width="130" height="40" as="alternateBounds" />
          </mxGeometry>
        </mxCell>
        <mxCell id="J0dQeRpLoNbESxw6J08J-127" value="CORSnet-NSW VPC Peer" style="shape=partialRectangle;html=1;whiteSpace=wrap;connectable=0;strokeColor=inherit;overflow=hidden;fillColor=none;top=0;left=0;bottom=0;right=0;pointerEvents=1;" parent="J0dQeRpLoNbESxw6J08J-125" vertex="1">
          <mxGeometry x="130" width="215" height="40" as="geometry">
            <mxRectangle width="215" height="40" as="alternateBounds" />
          </mxGeometry>
        </mxCell>
        <mxCell id="zUVzzsmAaj4XS_Gr1BxX-4" style="shape=tableRow;horizontal=0;startSize=0;swimlaneHead=0;swimlaneBody=0;strokeColor=inherit;top=0;left=0;bottom=0;right=0;collapsible=0;dropTarget=0;fillColor=none;points=[[0,0.5],[1,0.5]];portConstraint=eastwest;" parent="J0dQeRpLoNbESxw6J08J-111" vertex="1">
          <mxGeometry y="230" width="345" height="40" as="geometry" />
        </mxCell>
        <mxCell id="zUVzzsmAaj4XS_Gr1BxX-5" value="10.49.0.0 /16" style="shape=partialRectangle;html=1;whiteSpace=wrap;connectable=0;strokeColor=inherit;overflow=hidden;fillColor=none;top=0;left=0;bottom=0;right=0;pointerEvents=1;" parent="zUVzzsmAaj4XS_Gr1BxX-4" vertex="1">
          <mxGeometry width="130" height="40" as="geometry">
            <mxRectangle width="130" height="40" as="alternateBounds" />
          </mxGeometry>
        </mxCell>
        <mxCell id="zUVzzsmAaj4XS_Gr1BxX-6" value="Local" style="shape=partialRectangle;html=1;whiteSpace=wrap;connectable=0;strokeColor=inherit;overflow=hidden;fillColor=none;top=0;left=0;bottom=0;right=0;pointerEvents=1;" parent="zUVzzsmAaj4XS_Gr1BxX-4" vertex="1">
          <mxGeometry x="130" width="215" height="40" as="geometry">
            <mxRectangle width="215" height="40" as="alternateBounds" />
          </mxGeometry>
        </mxCell>
        <mxCell id="J0dQeRpLoNbESxw6J08J-135" value="* one per private subnet due to NAT GW routes being per subnet" style="text;html=1;align=center;verticalAlign=middle;resizable=0;points=[];autosize=1;strokeColor=none;fillColor=none;" parent="1" vertex="1">
          <mxGeometry x="-1052.5" y="50" width="370" height="30" as="geometry" />
        </mxCell>
        <mxCell id="J0dQeRpLoNbESxw6J08J-137" value="Elastic Load Balancing&lt;div&gt;Internal&lt;/div&gt;" style="sketch=0;outlineConnect=0;gradientColor=none;html=1;whiteSpace=wrap;fontSize=12;fontStyle=0;shape=mxgraph.aws4.groupCenter;grIcon=mxgraph.aws4.group_elastic_load_balancing;grStroke=1;strokeColor=#00A1C9;fillColor=none;verticalAlign=top;align=center;fontColor=#00A1C9;dashed=0;spacingTop=25;" parent="1" vertex="1">
          <mxGeometry x="-1900" y="-115" width="760" height="100" as="geometry" />
        </mxCell>
        <mxCell id="zUVzzsmAaj4XS_Gr1BxX-10" value="* shared by all public subnets" style="text;html=1;align=center;verticalAlign=middle;resizable=0;points=[];autosize=1;strokeColor=none;fillColor=none;" parent="1" vertex="1">
          <mxGeometry x="-957.5" y="-446.5" width="180" height="30" as="geometry" />
        </mxCell>
        <mxCell id="30fNEifEjN3rO4pBRbPx-2" value="RDS VPC&lt;div&gt;&lt;br&gt;&lt;/div&gt;&lt;div&gt;10.0.0.0 /16&lt;/div&gt;&lt;div&gt;&lt;br&gt;&lt;/div&gt;&lt;div&gt;see gnss-common/rds&lt;/div&gt;" style="sketch=0;outlineConnect=0;gradientColor=none;html=1;whiteSpace=wrap;fontSize=12;fontStyle=0;shape=mxgraph.aws4.group;grIcon=mxgraph.aws4.group_vpc;strokeColor=#879196;fillColor=none;verticalAlign=top;align=left;spacingLeft=30;fontColor=#879196;dashed=0;" parent="1" vertex="1">
          <mxGeometry x="-2435.5" y="4" width="220" height="130" as="geometry" />
        </mxCell>
      </root>
    </mxGraphModel>
  </diagram>
</mxfile>
